// Jest Snapshot v1, https://goo.gl/fbAQLP

exports[`Ui Dropdown should render without problem 1`] = `
<Dropdown
  defaultVisible={false}
  mouseEnterDelay={0.15}
  mouseLeaveDelay={0.1}
  onVisibleChange={[Function]}
  overlay={
    <DropdownMenu>
      <DropdownMenuItem>
        Link 1
      </DropdownMenuItem>
      <DropdownMenuItem>
        Link 2
      </DropdownMenuItem>
    </DropdownMenu>
  }
  overlayClassName=""
  overlayStyle={Object {}}
  placement="bottomLeft"
  prefixCls="Dropdown"
  showAction={Array []}
  transitionName="slide-up"
  trigger={
    Array [
      "hover",
    ]
  }
>
  <a
    className="Dropdown-trigger"
    href="javascript:void(0)"
  >
    Hover link
  </a>
</Dropdown>
`;
